{
  "name": "ETL Reviews API Documentation",
  "version": "0.0.1",
  "description": "",
  "title": "ETL Reviews API Documentation",
  "url" : "http://localhost:8000/api",
  "sampleUrl" : "http://localhost:8000/api"
}